warning: tag 'v.2.2' is really 'v2.2' here
Traceback (most recent call last):
  File "/g/data/er4/zk6340/code/Script_Hydro-projections/003b_clim_extremes_flood_grid_based.py", line 26, in <module>
    which_cluster = clusters[NRM_area]
KeyError: 'region'
