warning: tag 'v2.2' is externally known as 'v.2.2'
/g/data/er4/zk6340/code/Script_Hydro-projections/003b_clim_extremes_flood_grid_based.py:183: MatplotlibDeprecationWarning: 
The dedent function was deprecated in Matplotlib 3.1 and will be removed in 3.3. Use inspect.cleandoc instead.
  projection='cyl')
/g/data/er4/zk6340/code/Script_Hydro-projections/003b_clim_extremes_flood_grid_based.py:185: MatplotlibDeprecationWarning: 
The dedent function was deprecated in Matplotlib 3.1 and will be removed in 3.3. Use inspect.cleandoc instead.
  map.drawstates()
/g/data/er4/zk6340/code/Script_Hydro-projections/003b_clim_extremes_flood_grid_based.py:187: MatplotlibDeprecationWarning: 
The dedent function was deprecated in Matplotlib 3.1 and will be removed in 3.3. Use inspect.cleandoc instead.
  map.drawcountries()
/g/data/er4/zk6340/code/Script_Hydro-projections/003b_clim_extremes_flood_grid_based.py:183: MatplotlibDeprecationWarning: 
The dedent function was deprecated in Matplotlib 3.1 and will be removed in 3.3. Use inspect.cleandoc instead.
  projection='cyl')
/g/data/er4/zk6340/code/Script_Hydro-projections/003b_clim_extremes_flood_grid_based.py:185: MatplotlibDeprecationWarning: 
The dedent function was deprecated in Matplotlib 3.1 and will be removed in 3.3. Use inspect.cleandoc instead.
  map.drawstates()
/g/data/er4/zk6340/code/Script_Hydro-projections/003b_clim_extremes_flood_grid_based.py:187: MatplotlibDeprecationWarning: 
The dedent function was deprecated in Matplotlib 3.1 and will be removed in 3.3. Use inspect.cleandoc instead.
  map.drawcountries()
/g/data/er4/zk6340/code/Script_Hydro-projections/003b_clim_extremes_flood_grid_based.py:183: MatplotlibDeprecationWarning: 
The dedent function was deprecated in Matplotlib 3.1 and will be removed in 3.3. Use inspect.cleandoc instead.
  projection='cyl')
/g/data/er4/zk6340/code/Script_Hydro-projections/003b_clim_extremes_flood_grid_based.py:185: MatplotlibDeprecationWarning: 
The dedent function was deprecated in Matplotlib 3.1 and will be removed in 3.3. Use inspect.cleandoc instead.
  map.drawstates()
/g/data/er4/zk6340/code/Script_Hydro-projections/003b_clim_extremes_flood_grid_based.py:187: MatplotlibDeprecationWarning: 
The dedent function was deprecated in Matplotlib 3.1 and will be removed in 3.3. Use inspect.cleandoc instead.
  map.drawcountries()
Traceback (most recent call last):
  File "/g/data/er4/zk6340/code/Script_Hydro-projections/003b_clim_extremes_flood_grid_based.py", line 192, in <module>
    plt.savefig(os.path.join(dir_out,plot_file),bbox_inches='tight')
  File "/g/data/er4/zk6340/conda/envs/py36-khan/lib/python3.6/site-packages/matplotlib/pyplot.py", line 722, in savefig
    res = fig.savefig(*args, **kwargs)
  File "/g/data/er4/zk6340/conda/envs/py36-khan/lib/python3.6/site-packages/matplotlib/figure.py", line 2180, in savefig
    self.canvas.print_figure(fname, **kwargs)
  File "/g/data/er4/zk6340/conda/envs/py36-khan/lib/python3.6/site-packages/matplotlib/backend_bases.py", line 2082, in print_figure
    **kwargs)
  File "/g/data/er4/zk6340/conda/envs/py36-khan/lib/python3.6/site-packages/matplotlib/backends/backend_agg.py", line 597, in print_jpg
    filename_or_obj, format='jpeg', **pil_kwargs)
  File "/g/data/er4/zk6340/conda/envs/py36-khan/lib/python3.6/site-packages/PIL/Image.py", line 2081, in save
    fp = builtins.open(filename, "w+b")
OSError: [Errno 122] Disk quota exceeded: '/g/data/er4/zk6340/Hydro_projection/data_flood_scenario_pr/20560101-20851231/WT_gridded_change_yT_CNRM-CERFACS-CNRM-CM5 - r240x120-MRNBC-AWAP - rcp45.jpeg'
