
======================================================================================
                  Resource Usage on 2021-09-15 12:46:51:
   Job Id:             28440286.gadi-pbs
   Project:            er4
   Exit Status:        1
   Service Units:      4.64
   NCPUs Requested:    48                     NCPUs Used: 48              
                                           CPU Time Used: 00:00:19                                   
   Memory Requested:   190.0GB               Memory Used: 5.03GB          
   Walltime requested: 12:00:00            Walltime Used: 00:00:58        
   JobFS requested:    100.0MB                JobFS used: 0B              
======================================================================================
