warning: tag 'v2.2' is externally known as 'v.2.2'
ERROR 1: TopologyException: Input geom 1 is invalid: Ring Self-intersection at or near point 151.64319458600005 -31.305138810999889 0 at 151.64319458600005 -31.305138810999889 0
/g/data/er4/vd5822/miniconda3/envs/awra-cms/lib/python3.6/site-packages/dask/config.py:168: YAMLLoadWarning: calling yaml.load() without Loader=... is deprecated, as the default Loader is unsafe. Please read https://msg.pyyaml.org/load for full details.
  data = yaml.load(f.read()) or {}
/g/data/er4/vd5822/miniconda3/envs/awra-cms/lib/python3.6/site-packages/distributed/config.py:20: YAMLLoadWarning: calling yaml.load() without Loader=... is deprecated, as the default Loader is unsafe. Please read https://msg.pyyaml.org/load for full details.
  defaults = yaml.load(f)
Traceback (most recent call last):
  File "/g/data/er4/zk6340/code/Script_Hydro-projections/006a_calculate_flood_index_NWGA.py", line 154, in <module>
    ds_hist = extract(data_hist, pattern, var_name, catchment, period_hist)
  File "/g/data/er4/AWRACMS/awrams_cm_v6.1/utils/awrams/utils/processing/extract.py", line 12, in extract
    return extract_from_filemanager(sfm,extent_map,period)
  File "/g/data/er4/AWRACMS/awrams_cm_v6.1/utils/awrams/utils/processing/extract.py", line 23, in extract_from_filemanager
    max_spatial = max([np.prod(v.shape) for v in extent_map.values()])
ValueError: max() arg is an empty sequence
